<?xml version="1.0" encoding="utf-8"?>
<!-- Generator: Adobe Illustrator 21.0.2, SVG Export Plug-In . SVG Version: 6.00 Build 0)  -->
<svg version="1.1"
	 id="svg4136" xmlns:cc="http://creativecommons.org/ns#" xmlns:dc="http://purl.org/dc/elements/1.1/" xmlns:osb="http://www.openswatchbook.org/uri/2009/osb" xmlns:rdf="http://www.w3.org/1999/02/22-rdf-syntax-ns#" xmlns:svg="http://www.w3.org/2000/svg"
	 xmlns="http://www.w3.org/2000/svg" xmlns:xlink="http://www.w3.org/1999/xlink" x="0px" y="0px"
	 viewBox="0 0 608.99976 219.00024" style="enable-background:new 0 0 608.99976 219.00024;" xml:space="preserve">
<style type="text/css">
	.st0{fill:#9400A8;}
</style>
<path id="instafilm" class="st0" d="M380,114.99017c6.73999-0.02,18.98999-3.55,23.69-8.38c4.57001-4.7,2.56-13.93,8.44-19.34
	c3.63-3.33,13.48999-6.48,17.26999-1.96c2.95999,3.54,0.04999,12.6-1.10999,16.69c-2.54999,9.03-8.73999,31.46-8.25,39.99999
	c0.95001,16.39,21.79001-2.13,22.94-7l-0.98001-16c-0.04001-28.45,9.63-69.43,24.01001-94
	c5.07001-8.66,10.92001-17.93,19.98999-22.81c10.37-5.58,18.51001-1.37,20.98001,9.81c0.79001,3.54,1.12,6.36,0.98001,10
	c-1.20999,31.27-21.51001,63.67-35.20999,91c-3.45001,6.89-7,14.07-6.70999,22c0.10001,2.67999,0.73999,7.46001,3.38,8.88
	c3.54999,1.91,12.60001-4.17999,15.57999-6.24001c8.17999-5.64,6.35999-9.02,7.75-17.64c1.17999-7.22,4.62-27.27,7.81-32.89
	c2.47-4.38,11.16-5.85,15.00998-2.51c2.34998,2.04,2.5,5.52,2.34003,8.4c-0.40002,7.25-3.52002,17.22-1.90997,24
	c2.09998-7.18,13.41998-25.96,19.03998-30.77c7.08002-6.07,15.77002-3.52,15.96002,6.77c0.23999,13.52-3.82001,16.49-3,25
	c2.09998-5.69,6.22998-11.72,9.40002-17c2.34003-3.9,4.40997-7.41,7.27002-11c9.28003-11.63,19.70001-7.18,20.28998,3
	l-3.95001,38.00001c-0.08002,3.5-0.37,11.91,3.54999,13.53999c2.53003,1.06,6.47998-1.63,8.44-3.03l16-14.51v17.00001
	c-0.13,6.98-2.78998,8.25-8,12.56c-7.41998,6.16-16.07001,10.97-26,10.39999c-7.42999-0.42999-9.75-6.39999-10.85999-12.96001
	c-1.38-8.22-1.17999-11.85001-1.14001-20c0.03003-6.11,1.66998-10.06,0-16c-1.08002,6.9-7.06,20.77-9.81,28
	c-1.56,4.10001-4.21997,12.66-6.40002,15.89999c-3.87,5.73-13.69,7.42-17.34003,0.99001c-6.21997-10.95,2.81-35.42,0.54999-44.89
	l-11.14001,25c-1.66998,3.75-7.67999,17.38-9.66,19.89c-4.84,6.16-15.82001,6.59-18.20001-5.89c-11.48999,7.48-29.31,17.08-39.03,2
	c-1.51999-2.35001-2.20999-4.36-2.97-7c-12.29001,7.69-21.63,15.41-37,14.98c-5.06-0.14-9.14001-1.42999-11.95999-6.02
	c-5.10001-8.53999-1.29001-23.56999,0-32.95999c-6.82999,2.89-17.63,4.65999-25.04001,4.99998
	c2.95001,4.32001,3.51999,6.27,5.39999,11c6.85999,17.3,7.07999,32.20999,1.57999,50c-2.62,8.44-6.42001,17.38-14.01999,22.52
	c-3.32001,2.24001-5.07999,2.42-8.95999,2.48c-2.92999,0.03999-6.34,0.16-9-1.17c-12.10999-6.09-14.94-30.64-15-42.83v-12
	c-12.89999,6.61-24.67001,7.7-30-9c-11.10001,10.86-28.92001,21.12-41.62,5.96001c-2.10999-2.52-3.26001-4.92-4.38-7.96001
	c-5.2,3.98-6.59,4.37-12,7.42c-13.52,7.64-28.45999,13.55-38.89-2.42c-1.94-2.96001-2.46001-4.59-3.11-8l-12,7.11
	c-13.49001,7.16-29.69,12.06999-45,11.89c-9.48-0.11-18.25-2.46001-22-12c-5.25,3.28-7.1,4.91-13,7.74001
	c-2.72,1.3-5.02,2.23-8,2.78999c-2.82,0.53999-7.33,0.86-9.91-0.55c-3.41-1.87-5.34-6.39999-6.33-9.98c-2.39-8.62-2.19-19.19-0.9-28
	c0.38-4,0.95-7.02,0-11c-1.73,6.56-10.2,23.17999-13.61,30c-1.65,3.28999-7.03,14.64999-8.88,16.77
	c-4.38,5.00999-16.97,6.12-17.37-9.77c-10.38,7.95-38.01,22.55-46.43,5c-4.49-9.36,1.05-30.92,3.22-41
	c0.99-4.61,5.65-25.02,7.35-27.96c1.04-1.8,2.17-2.91,3.9-4.05c6.15-4.06,17.45-5.68,16.87,5.01l-9.75,42
	c-0.52,3.95-2.68,14.62,2.98,15.78c3.97,0.82001,10.97-4.64,13.86-7.08c1.8-1.50999,5.87-5.06,6.98-6.98
	c1.36-2.35001,1.83-8.83,2.17-11.72l3.45-23c0.75-3.72,1.78-9.84,4.1-12.79c4.13-5.24,16.22-7.53,17.2,5.79
	c0.37,5.04-2.24,20.98-3.9,26c7.75-7.76,12.21-29.13,23-34.55c7.62-3.83,14.99,0.01,15.89,8.55c0.86,8.07-3.47,28.08-4.6,38
	c-0.42,3.63,0.01,17.13,6.58,14.60001c3.5-1.35001,2.2-5,9.15-11.32001c6.37-5.78999,12.79-11.43,18.09-18.28l20.98-27.9
	c7.67-7.45,19.78-6.47,21.59,0.92c1.92999,7.84-6.23,13.42-8.62,18.98c-1.46001,3.13-0.67999,5.84,0,9
	c2.75,11.27,3.94,14.05,3.94,26c4.75999-2.22,20.77-9.25999,22.98-13.21001c1.21001-2.2,0.03-10.52,0-13.79
	c0.00999-9.18-0.50999-20.19,2.02-29c-3.12-0.42-17.94-2.82-19.85001-4.01c-2.92999-1.81-3.94-5.8-1.55-8.48
	c3.32001-3.72,18.25-2.51,23.39999-2.51c1.96001-14.54,8.5-34.34,15.88-47c3.44-5.92,8.85001-12.92,16.12-13.81
	c9.69-1.19,15.10001,7.56,17.10001,15.81c4.2,17.29-4.78999,33.57-13.10001,48c4.67,0,21.18999-0.09,24.7,1.6
	c4.13,1.99,3.23999,9.72-0.92001,12.23c-3.37,2.03-20.85001,1.16-25.78,1.17c-1.92999,0-5.08-0.12-6.83,0.6
	c-2.36,0.97-4.05,3.42-5.53999,5.4c-7.53999,10.03-5.64999,21.08-5.63,33c0,2.57001-0.08,5.5,0.53,8
	c4.44,18.28,23.55,5.57001,32.47-0.72c9.34-6.59,7.59-11.3,12.32001-21.28c4.81-10.16,12.16-20.17,21.67999-26.3
	c4.47-2.88,12.56-6.71,17.98999-5.27c4.20001,1.12,5.31,4.36,9.04999,5.83c3.67001,1.45,8.42001-0.27,10.79001,3.17
	c1.44,2.1,1.22,7.02,1.16,9.57l-3.91,26c-0.67999,4.14-3.66,19.97,4.94,17.63c1.95001-0.53,4.47-2.47,5.95999-3.82001
	c7.44-6.71001,6.14999-16.62,7.44-25.81c3.76001-26.59,9.17001-60.9,20.84-85c6.17999-12.77,18.92001-31.39,35.73999-24.52
	c14.28,5.84,12.69,20.34,9.88,32.52c-5.20999,22.62-23.82001,58.47-38.88,75.99c6.82001-1.59,6.79999-0.02,13,0L380,114.99017z
	 M476.87,38.00017c-4.70001,10.91-8.78,26.22-10.73001,38c-0.73001,5.6-2.28,12.61,0,18c9.71002-24.21,22.86002-43.68,22.86002-71
	C482.57001,26.07017,479.60001,31.67017,476.87,38.00017z M388.98999,44.00017c1.79999-4.44,5.59-14.98-1.12-17.36
	c-6.59-2.33-9.76999,7.93-11.45001,12.36c-4.12,10.92-7.66,23.53-9.81,35c-0.95999,5.14-2.60001,10.98-0.60999,16
	L388.98999,44.00017z M224.61,71.40017c1.92-1.55,3.52-5.17,4.64-7.4c3.14999-6.28,6-12.23,8.03-19c0.87-2.92,2.31-7.88,0.98-10.77
	c-1.28999-2.8-3.74001-2.8-5.87-0.87c-2.3,2.07-4.66,8.59-5.64999,11.64l-3.11,11l-3.63,17
	C221.92,72.68017,222.98,72.72017,224.61,71.40017z M34,44.31017c14.49,0.79,16.48,14.6,10.35,22.59c-3.48,4.54-9.81,6.39-15.35,6
	c-16.69-1.16-17.8-22.98-1-28.59C30.22,44.17017,31.71,43.94017,34,44.31017z M432,44.31017
	c11.64999,0.6,16.75,12.22,10.29999,21.67c-3.60001,5.28-9.09,7.36-15.29999,6.92c-10.89001-0.76-16.95999-11.25-11.44-20.86
	c2.48999-4.35,5.84-6.08,10.44-7.73C428.22,44.17017,429.72,43.94017,432,44.31017z M280.04001,140.00017
	c0.28,6.23,4.26999,12.73,10.75,7.49001c3.04001-2.46001,5.60999-8.78,6.85001-12.49001c1.73001-5.12,1.79999-6.92999,2.64001-12
	l4.71997-22C289.29001,102.68017,279.39001,125.80017,280.04001,140.00017z M134,145.00017c1.89,1.8,3.75999,3.73,6,5.11
	c1.71001,1.06,3,1.52,5,1.75c16.06,1.88,11.61-18.83,9-27.86C147.45,128.69017,138.33,138.17017,134,145.00017z
	 M355.96002,146.00017l-0.95999,11v18l1.47,18c0.38,1.95,1.14999,5.41,3.70999,5.39c6.17999-0.03999,6.81-14.14,6.82001-18.39
	c0.03-18.53-1.03-33.45999-8-51C355.91003,133.76016,356.21002,140.48016,355.96002,146.00017z"/>
</svg>
